     1	Tue Jul 28 22:09:25 UTC 2020  source: test destination: outDir
     2	271097 test/Pumkpin/kobocha/3.txt
     3	  test/Pumkpin/kobocha/3.txt  outDir/Pumkpin/kobocha/3.txt.bak
     4	271096 test/Pumkpin/kobocha/2.txt
     5	  test/Pumkpin/kobocha/2.txt  outDir/Pumkpin/kobocha/2.txt.bak
     6	271094 test/Pumkpin/kobocha/0.txt
     7	  test/Pumkpin/kobocha/0.txt  outDir/Pumkpin/kobocha/0.txt.bak
     8	271095 test/Pumkpin/kobocha/1.txt
     9	  test/Pumkpin/kobocha/1.txt  outDir/Pumkpin/kobocha/1.txt.bak
    10	271099 test/Pumkpin/WinterMelon/5.txt
    11	  test/Pumkpin/WinterMelon/5.txt  outDir/Pumkpin/WinterMelon/5.txt.bak
    12	271098 test/Pumkpin/WinterMelon/4.txt
    13	  test/Pumkpin/WinterMelon/4.txt  outDir/Pumkpin/WinterMelon/4.txt.bak
    14	271282 test/Pumkpin/heart.csv
    15	  test/Pumkpin/heart.csv  outDir/Pumkpin/heart.csv.bak
    16	271105 test/Diakon/Pickle/8.txt
    17	  test/Diakon/Pickle/8.txt  outDir/Diakon/Pickle/8.txt.bak
    18	271104 test/Diakon/Pickle/7.txt
    19	  test/Diakon/Pickle/7.txt  outDir/Diakon/Pickle/7.txt.bak
    20	271119 test/Diakon/Pickle/pg58.txt
    21	  test/Diakon/Pickle/pg58.txt  outDir/Diakon/Pickle/pg58.txt.bak
    22	271103 test/Diakon/Pickle/6.txt
    23	  test/Diakon/Pickle/6.txt  outDir/Diakon/Pickle/6.txt.bak
    24	271106 test/Diakon/Oden/9.txt
    25	  test/Diakon/Oden/9.txt  outDir/Diakon/Oden/9.txt.bak
    26	271107 test/Diakon/Oden/10.txt
    27	  test/Diakon/Oden/10.txt  outDir/Diakon/Oden/10.txt.bak
    28	271108 test/Diakon/Oden/11.txt
    29	  test/Diakon/Oden/11.txt  outDir/Diakon/Oden/11.txt.bak
    30	271325 test/Parsenip/Chips/heart.csv
    31	  test/Parsenip/Chips/heart.csv  outDir/Parsenip/Chips/heart.csv.bak
    32	271120 test/Carrot/pg972.txt
    33	  test/Carrot/pg972.txt  outDir/Carrot/pg972.txt.bak
    34	271114 test/Carrot/Oden/14.txt
    35	  test/Carrot/Oden/14.txt  outDir/Carrot/Oden/14.txt.bak
    36	271115 test/Carrot/Oden/15.txt
    37	  test/Carrot/Oden/15.txt  outDir/Carrot/Oden/15.txt.bak
    38	271121 test/Carrot/Oden/pg972.txt
    39	  test/Carrot/Oden/pg972.txt  outDir/Carrot/Oden/pg972.txt.bak
    40	271113 test/Carrot/Orange/13.txt
    41	  test/Carrot/Orange/13.txt  outDir/Carrot/Orange/13.txt.bak
    42	271112 test/Carrot/Orange/12.txt
    43	  test/Carrot/Orange/12.txt  outDir/Carrot/Orange/12.txt.bak
